Estimating the Local Air Pollution Impacts of Cruise Traffic: Toy Example for Understanding Randomization Inference
…
# create a nested dataframe with
# the set of constant treatment effect sizes
# and the vector of observed pair differences
ri_data_fi <-
  tibble(observed_pair_differences = observed_pair_differences) %>%
  summarise(data_observed_pair_differences = list(observed_pair_differences)) %>%
  group_by(data_observed_pair_differences) %>%
  expand(effect = seq(from = -20, to = 20, by = 0.5)) %>%
  ungroup()

# display the nested table
ri_data_fi

# A tibble: 81 x 2
   data_observed_pair_differences effect
   <list>                          <dbl>
 1 <dbl [10]>                      -20  
 2 <dbl [10]>                      -19.5
 3 <dbl [10]>                      -19  
 4 <dbl [10]>                      -18.5
 5 <dbl [10]>                      -18  
 6 <dbl [10]>                      -17.5
 7 <dbl [10]>                      -17  
 8 <dbl [10]>                      -16.5
 9 <dbl [10]>                      -16  
10 <dbl [10]>                      -15.5
# ... with 71 more rows
…
# compute the adjusted pair differences
ri_data_fi <- ri_data_fi %>%
  mutate(
    data_adjusted_pair_difference = map2(
      data_observed_pair_differences,
      effect,
      ~ adjusted_pair_difference_function(.x, .y)
    )
  )

# display the table
ri_data_fi

# A tibble: 81 x 3
   data_observed_pair_differences effect data_adjusted_pair_difference
   <list>                          <dbl> <list>                       
 1 <dbl [10]>                      -20   <dbl [10]>                   
 2 <dbl [10]>                      -19.5 <dbl [10]>                   
 3 <dbl [10]>                      -19   <dbl [10]>                   
 4 <dbl [10]>                      -18.5 <dbl [10]>                   
 5 <dbl [10]>                      -18   <dbl [10]>                   
 6 <dbl [10]>                      -17.5 <dbl [10]>                   
 7 <dbl [10]>                      -17   <dbl [10]>                   
 8 <dbl [10]>                      -16.5 <dbl [10]>                   
 9 <dbl [10]>                      -16   <dbl [10]>                   
10 <dbl [10]>                      -15.5 <dbl [10]>                   
# ... with 71 more rows

We compute the observed mean of adjusted pair differences:

# compute the observed mean of adjusted pair differences
ri_data_fi <- ri_data_fi %>%
  mutate(observed_mean_difference = map(data_adjusted_pair_difference, ~ mean(.))) %>%
  unnest(cols = c(observed_mean_difference)) %>%
  select(-data_observed_pair_differences) %>%
  ungroup()

# display the table
ri_data_fi

# A tibble: 81 x 3
   effect data_adjusted_pair_difference observed_mean_difference
    <dbl> <list>                                           <dbl>
 1  -20   <dbl [10]>                                        22.4
 2  -19.5 <dbl [10]>                                        21.9
 3  -19   <dbl [10]>                                        21.4
 4  -18.5 <dbl [10]>                                        20.9
 5  -18   <dbl [10]>                                        20.4
 6  -17.5 <dbl [10]>                                        19.9
 7  -17   <dbl [10]>                                        19.4
 8  -16.5 <dbl [10]>                                        18.9
 9  -16   <dbl [10]>                                        18.4
10  -15.5 <dbl [10]>                                        17.9
# ... with 71 more rows
…
We run the function:

# compute the test statistic distribution
ri_data_fi <- ri_data_fi %>%
  mutate(
    randomization_distribution = map(
      data_adjusted_pair_difference,
      ~ function_randomization_distribution(., n_pairs = 10)
    )
  )

# display the table
ri_data_fi

# A tibble: 81 x 4
   effect data_adjusted_pair_differ~ observed_mean_d~ randomization_d~
    <dbl> <list>                                <dbl> <list>          
 1  -20   <dbl [10]>                             22.4 <dbl [1,024]>   
 2  -19.5 <dbl [10]>                             21.9 <dbl [1,024]>   
 3  -19   <dbl [10]>                             21.4 <dbl [1,024]>   
 4  -18.5 <dbl [10]>                             20.9 <dbl [1,024]>   
 5  -18   <dbl [10]>                             20.4 <dbl [1,024]>   
 6  -17.5 <dbl [10]>                             19.9 <dbl [1,024]>   
 7  -17   <dbl [10]>                             19.4 <dbl [1,024]>   
 8  -16.5 <dbl [10]>                             18.9 <dbl [1,024]>   
 9  -16   <dbl [10]>                             18.4 <dbl [1,024]>   
10  -15.5 <dbl [10]>                             17.9 <dbl [1,024]>   
# ... with 71 more rows
…
# create a nested dataframe with 
# the set of constant treatment effect sizes
# and the vector of observed pair differences
ri_data_fi_weak <- tibble(observed_pair_differences = observed_pair_differences) %>%
  summarise(data_observed_pair_differences = list(observed_pair_differences)) %>%
  group_by(data_observed_pair_differences) %>%
  expand(effect = seq(from = -20, to = 20, by = 0.5)) %>%
  ungroup()

# display the nested table
ri_data_fi_weak

# A tibble: 81 x 2
   data_observed_pair_differences effect
   <list>                          <dbl>
 1 <dbl [10]>                      -20  
 2 <dbl [10]>                      -19.5
 3 <dbl [10]>                      -19  
 4 <dbl [10]>                      -18.5
 5 <dbl [10]>                      -18  
 6 <dbl [10]>                      -17.5
 7 <dbl [10]>                      -17  
 8 <dbl [10]>                      -16.5
 9 <dbl [10]>                      -16  
10 <dbl [10]>                      -15.5
# ... with 71 more rows

We then subtract for each pair difference the hypothetical constant
effect using the previously used
adjusted_pair_difference_function():

# compute the adjusted pair differences
ri_data_fi_weak <- ri_data_fi_weak %>%
  mutate(data_adjusted_pair_difference = map2(data_observed_pair_differences, effect, ~ adjusted_pair_difference_function(.x, .y)))

# display the table
ri_data_fi_weak

# A tibble: 81 x 3
   data_observed_pair_differences effect data_adjusted_pair_difference
   <list>                          <dbl> <list>                       
 1 <dbl [10]>                      -20   <dbl [10]>                   
 2 <dbl [10]>                      -19.5 <dbl [10]>                   
 3 <dbl [10]>                      -19   <dbl [10]>                   
 4 <dbl [10]>                      -18.5 <dbl [10]>                   
 5 <dbl [10]>                      -18   <dbl [10]>                   
 6 <dbl [10]>                      -17.5 <dbl [10]>                   
 7 <dbl [10]>                      -17   <dbl [10]>                   
 8 <dbl [10]>                      -16.5 <dbl [10]>                   
 9 <dbl [10]>                      -16   <dbl [10]>                   
10 <dbl [10]>                      -15.5 <dbl [10]>                   
# ... with 71 more rows
…
# display the table
ri_data_fi_weak

# A tibble: 81 x 3
   effect data_adjusted_pair_difference observed_neyman_t_stat
    <dbl> <list>                                         <dbl>
 1  -20   <dbl [10]>                                      5.82
 2  -19.5 <dbl [10]>                                      5.69
 3  -19   <dbl [10]>                                      5.56
 4  -18.5 <dbl [10]>                                      5.43
 5  -18   <dbl [10]>                                      5.30
 6  -17.5 <dbl [10]>                                      5.17
 7  -17   <dbl [10]>                                      5.04
 8  -16.5 <dbl [10]>                                      4.91
 9  -16   <dbl [10]>                                      4.78
10  -15.5 <dbl [10]>                                      4.65
# ... with 71 more rows
…
We run the function:

# compute the test statistic distribution
ri_data_fi_weak <- ri_data_fi_weak %>%
  mutate(
    randomization_distribution = map(
      data_adjusted_pair_difference,
      ~ function_randomization_distribution_t_stat(., n_pairs = 10)
    )
  )

# display the table
ri_data_fi_weak

# A tibble: 81 x 4
   effect data_adjusted_pair_differ~ observed_neyman~ randomization_d~
    <dbl> <list>                                <dbl> <list>          
 1  -20   <dbl [10]>                             5.82 <dbl [1,024]>   
 2  -19.5 <dbl [10]>                             5.69 <dbl [1,024]>   
 3  -19   <dbl [10]>                             5.56 <dbl [1,024]>   
 4  -18.5 <dbl [10]>                             5.43 <dbl [1,024]>   
 5  -18   <dbl [10]>                             5.30 <dbl [1,024]>   
 6  -17.5 <dbl [10]>                             5.17 <dbl [1,024]>   
 7  -17   <dbl [10]>                             5.04 <dbl [1,024]>   
 8  -16.5 <dbl [10]>                             4.91 <dbl [1,024]>   
 9  -16   <dbl [10]>                             4.78 <dbl [1,024]>   
10  -15.5 <dbl [10]>                             4.65 <dbl [1,024]>   
# ... with 71 more rows
…
